<svg xmlns="http://www.w3.org/2000/svg" width="55" height="55" viewBox="0 0 55 55">
  <g id="search" transform="translate(0.062 -0.063)">
    <path id="Trazado_3" data-name="Trazado 3" d="M31.561,31.49a7.741,7.741,0,1,1,2.265-5.471A7.683,7.683,0,0,1,31.561,31.49Zm23.377-3.927a27.5,27.5,0,1,1-27.5-27.5A27.532,27.532,0,0,1,54.938,27.563Zm-15.264,9.57-4.548-4.56A11.208,11.208,0,1,0,32.7,35.01l4.536,4.548a1.718,1.718,0,1,0,2.434-2.425Z" transform="translate(0)" fill="#fff"/>
  </g>
</svg>
